{
  "content": [
    {
      "name": "wer",
      "start": "01-01-2010",
      "end": "20-05-2020",
      "active": true,
      "questions": [
        {
          "text": "What is your name?",
          "number": 1
        }
      ]
    },
    {
      "name": "ert",
      "start": "12-12-2019",
      "end": "20-05-2020",
      "active": true,
      "questions": [
        {
          "text": "What is your name?",
          "number": 1
        }
      ]
    },
    {
      "name": "asd",
      "start": "03-04-2020",
      "end": "20-05-2020",
      "active": true,
      "questions": [
        {
          "text": "What is your name?",
          "number": 1
        }
      ]
    }
  ],
  "pageable": {
    "sort": {
      "sorted": true,
      "unsorted": false,
      "empty": false
    },
    "pageNumber": 0,
    "pageSize": 3,
    "offset": 0,
    "paged": true,
    "unpaged": false
  },
  "totalElements": 4,
  "totalPages": 2,
  "last": false,
  "first": true,
  "sort": {
    "sorted": true,
    "unsorted": false,
    "empty": false
  },
  "numberOfElements": 3,
  "size": 3,
  "number": 0,
  "empty": false
}